{
	"process_id" : 16636,
	"version" : "2019.3.11f1",
	"app_path" : "C:/Program Files/Unity/Hub/Editor/2019.3.11f1/Editor/Unity.exe",
	"app_contents_path" : "C:/Program Files/Unity/Hub/Editor/2019.3.11f1/Editor/Data"
}