%YAML 1.1
%TAG !u! tag:unity3d.com,2011:
--- !u!181963792 &2655988077585873504
Preset:
  m_ObjectHideFlags: 0
  m_CorrespondingSourceObject: {fileID: 0}
  m_PrefabInstance: {fileID: 0}
  m_PrefabAsset: {fileID: 0}
  m_Name: Materialbtn
  m_TargetType:
    m_NativeTypeID: 21
    m_ManagedTypePPtr: {fileID: 0}
    m_ManagedTypeFallback: 
  m_Properties:
  - target: {fileID: 0}
    propertyPath: m_Shader
    value: 
    objectReference: {fileID: 4800000, guid: fe393ace9b354375a9cb14cdbbc28be4, type: 3}
  - target: {fileID: 0}
    propertyPath: m_ShaderKeywords
    value: OUTLINE_ON UNDERLAY_ON
    objectReference: {fileID: 0}
  - target: {fileID: 0}
    propertyPath: m_LightmapFlags
    value: 5
    objectReference: {fileID: 0}
  - target: {fileID: 0}
    propertyPath: m_EnableInstancingVariants
    value: 0
    objectReference: {fileID: 0}
  - target: {fileID: 0}
    propertyPath: m_DoubleSidedGI
    value: 0
    objectReference: {fileID: 0}
  - target: {fileID: 0}
    propertyPath: m_CustomRenderQueue
    value: -1
    objectReference: {fileID: 0}
  - target: {fileID: 0}
    propertyPath: stringTagMap.Array.size
    value: 0
    objectReference: {fileID: 0}
  - target: {fileID: 0}
    propertyPath: disabledShaderPasses.Array.size
    value: 0
    objectReference: {fileID: 0}
  - target: {fileID: 0}
    propertyPath: m_SavedProperties.m_TexEnvs.Array.size
    value: 5
    objectReference: {fileID: 0}
  - target: {fileID: 0}
    propertyPath: m_SavedProperties.m_TexEnvs.Array.data[0].first
    value: _BumpMap
    objectReference: {fileID: 0}
  - target: {fileID: 0}
    propertyPath: m_SavedProperties.m_TexEnvs.Array.data[0].second.m_Texture
    value: 
    objectReference: {fileID: 0}
  - target: {fileID: 0}
    propertyPath: m_SavedProperties.m_TexEnvs.Array.data[0].second.m_Scale.x
    value: 1
    objectReference: {fileID: 0}
  - target: {fileID: 0}
    propertyPath: m_SavedProperties.m_TexEnvs.Array.data[0].second.m_Scale.y
    value: 1
    objectReference: {fileID: 0}
  - target: {fileID: 0}
    propertyPath: m_SavedProperties.m_TexEnvs.Array.data[0].second.m_Offset.x
    value: 0
    objectReference: {fileID: 0}
  - target: {fileID: 0}
    propertyPath: m_SavedProperties.m_TexEnvs.Array.data[0].second.m_Offset.y
    value: 0
    objectReference: {fileID: 0}
  - target: {fileID: 0}
    propertyPath: m_SavedProperties.m_TexEnvs.Array.data[1].first
    value: _Cube
    objectReference: {fileID: 0}
  - target: {fileID: 0}
    propertyPath: m_SavedProperties.m_TexEnvs.Array.data[1].second.m_Texture
    value: 
    objectReference: {fileID: 0}
  - target: {fileID: 0}
    propertyPath: m_SavedProperties.m_TexEnvs.Array.data[1].second.m_Scale.x
    value: 1
    objectReference: {fileID: 0}
  - target: {fileID: 0}
    propertyPath: m_SavedProperties.m_TexEnvs.Array.data[1].second.m_Scale.y
    value: 1
    objectReference: {fileID: 0}
  - target: {fileID: 0}
    propertyPath: m_SavedProperties.m_TexEnvs.Array.data[1].second.m_Offset.x
    value: 0
    objectReference: {fileID: 0}
  - target: {fileID: 0}
    propertyPath: m_SavedProperties.m_TexEnvs.Array.data[1].second.m_Offset.y
    value: 0
    objectReference: {fileID: 0}
  - target: {fileID: 0}
    propertyPath: m_SavedProperties.m_TexEnvs.Array.data[2].first
    value: _FaceTex
    objectReference: {fileID: 0}
  - target: {fileID: 0}
    propertyPath: m_SavedProperties.m_TexEnvs.Array.data[2].second.m_Texture
    value: 
    objectReference: {fileID: 0}
  - target: {fileID: 0}
    propertyPath: m_SavedProperties.m_TexEnvs.Array.data[2].second.m_Scale.x
    value: 1
    objectReference: {fileID: 0}
  - target: {fileID: 0}
    propertyPath: m_SavedProperties.m_TexEnvs.Array.data[2].second.m_Scale.y
    value: 1
    objectReference: {fileID: 0}
  - target: {fileID: 0}
    propertyPath: m_SavedProperties.m_TexEnvs.Array.data[2].second.m_Offset.x
    value: 0
    objectReference: {fileID: 0}
  - target: {fileID: 0}
    propertyPath: m_SavedProperties.m_TexEnvs.Array.data[2].second.m_Offset.y
    value: 0
    objectReference: {fileID: 0}
  - target: {fileID: 0}
    propertyPath: m_SavedProperties.m_TexEnvs.Array.data[3].first
    value: _MainTex
    objectReference: {fileID: 0}
  - target: {fileID: 0}
    propertyPath: m_SavedProperties.m_TexEnvs.Array.data[3].second.m_Texture
    value: 
    objectReference: {fileID: 28684132378477856, guid: 8f586378b4e144a9851e7b34d9b748ee,
      type: 2}
  - target: {fileID: 0}
    propertyPath: m_SavedProperties.m_TexEnvs.Array.data[3].second.m_Scale.x
    value: 1
    objectReference: {fileID: 0}
  - target: {fileID: 0}
    propertyPath: m_SavedProperties.m_TexEnvs.Array.data[3].second.m_Scale.y
    value: 1
    objectReference: {fileID: 0}
  - target: {fileID: 0}
    propertyPath: m_SavedProperties.m_TexEnvs.Array.data[3].second.m_Offset.x
    value: 0
    objectReference: {fileID: 0}
  - target: {fileID: 0}
    propertyPath: m_SavedProperties.m_TexEnvs.Array.data[3].second.m_Offset.y
    value: 0
    objectReference: {fileID: 0}
  - target: {fileID: 0}
    propertyPath: m_SavedProperties.m_TexEnvs.Array.data[4].first
    value: _OutlineTex
    objectReference: {fileID: 0}
  - target: {fileID: 0}
    propertyPath: m_SavedProperties.m_TexEnvs.Array.data[4].second.m_Texture
    value: 
    objectReference: {fileID: 0}
  - target: {fileID: 0}
    propertyPath: m_SavedProperties.m_TexEnvs.Array.data[4].second.m_Scale.x
    value: 1
    objectReference: {fileID: 0}
  - target: {fileID: 0}
    propertyPath: m_SavedProperties.m_TexEnvs.Array.data[4].second.m_Scale.y
    value: 1
    objectReference: {fileID: 0}
  - target: {fileID: 0}
    propertyPath: m_SavedProperties.m_TexEnvs.Array.data[4].second.m_Offset.x
    value: 0
    objectReference: {fileID: 0}
  - target: {fileID: 0}
    propertyPath: m_SavedProperties.m_TexEnvs.Array.data[4].second.m_Offset.y
    value: 0
    objectReference: {fileID: 0}
  - target: {fileID: 0}
    propertyPath: m_SavedProperties.m_Floats.Array.size
    value: 51
    objectReference: {fileID: 0}
  - target: {fileID: 0}
    propertyPath: m_SavedProperties.m_Floats.Array.data[0].first
    value: _Ambient
    objectReference: {fileID: 0}
  - target: {fileID: 0}
    propertyPath: m_SavedProperties.m_Floats.Array.data[0].second
    value: 0.5
    objectReference: {fileID: 0}
  - target: {fileID: 0}
    propertyPath: m_SavedProperties.m_Floats.Array.data[1].first
    value: _Bevel
    objectReference: {fileID: 0}
  - target: {fileID: 0}
    propertyPath: m_SavedProperties.m_Floats.Array.data[1].second
    value: 0.5
    objectReference: {fileID: 0}
  - target: {fileID: 0}
    propertyPath: m_SavedProperties.m_Floats.Array.data[2].first
    value: _BevelClamp
    objectReference: {fileID: 0}
  - target: {fileID: 0}
    propertyPath: m_SavedProperties.m_Floats.Array.data[2].second
    value: 0
    objectReference: {fileID: 0}
  - target: {fileID: 0}
    propertyPath: m_SavedProperties.m_Floats.Array.data[3].first
    value: _BevelOffset
    objectReference: {fileID: 0}
  - target: {fileID: 0}
    propertyPath: m_SavedProperties.m_Floats.Array.data[3].second
    value: 0
    objectReference: {fileID: 0}
  - target: {fileID: 0}
    propertyPath: m_SavedProperties.m_Floats.Array.data[4].first
    value: _BevelRoundness
    objectReference: {fileID: 0}
  - target: {fileID: 0}
    propertyPath: m_SavedProperties.m_Floats.Array.data[4].second
    value: 0
    objectReference: {fileID: 0}
  - target: {fileID: 0}
    propertyPath: m_SavedProperties.m_Floats.Array.data[5].first
    value: _BevelWidth
    objectReference: {fileID: 0}
  - target: {fileID: 0}
    propertyPath: m_SavedProperties.m_Floats.Array.data[5].second
    value: 0
    objectReference: {fileID: 0}
  - target: {fileID: 0}
    propertyPath: m_SavedProperties.m_Floats.Array.data[6].first
    value: _BumpFace
    objectReference: {fileID: 0}
  - target: {fileID: 0}
    propertyPath: m_SavedProperties.m_Floats.Array.data[6].second
    value: 0
    objectReference: {fileID: 0}
  - target: {fileID: 0}
    propertyPath: m_SavedProperties.m_Floats.Array.data[7].first
    value: _BumpOutline
    objectReference: {fileID: 0}
  - target: {fileID: 0}
    propertyPath: m_SavedProperties.m_Floats.Array.data[7].second
    value: 0
    objectReference: {fileID: 0}
  - target: {fileID: 0}
    propertyPath: m_SavedProperties.m_Floats.Array.data[8].first
    value: _ColorMask
    objectReference: {fileID: 0}
  - target: {fileID: 0}
    propertyPath: m_SavedProperties.m_Floats.Array.data[8].second
    value: 15
    objectReference: {fileID: 0}
  - target: {fileID: 0}
    propertyPath: m_SavedProperties.m_Floats.Array.data[9].first
    value: _Diffuse
    objectReference: {fileID: 0}
  - target: {fileID: 0}
    propertyPath: m_SavedProperties.m_Floats.Array.data[9].second
    value: 0.5
    objectReference: {fileID: 0}
  - target: {fileID: 0}
    propertyPath: m_SavedProperties.m_Floats.Array.data[10].first
    value: _DiffusePower
    objectReference: {fileID: 0}
  - target: {fileID: 0}
    propertyPath: m_SavedProperties.m_Floats.Array.data[10].second
    value: 1
    objectReference: {fileID: 0}
  - target: {fileID: 0}
    propertyPath: m_SavedProperties.m_Floats.Array.data[11].first
    value: _FaceDilate
    objectReference: {fileID: 0}
  - target: {fileID: 0}
    propertyPath: m_SavedProperties.m_Floats.Array.data[11].second
    value: 0.1
    objectReference: {fileID: 0}
  - target: {fileID: 0}
    propertyPath: m_SavedProperties.m_Floats.Array.data[12].first
    value: _FaceUVSpeedX
    objectReference: {fileID: 0}
  - target: {fileID: 0}
    propertyPath: m_SavedProperties.m_Floats.Array.data[12].second
    value: 0
    objectReference: {fileID: 0}
  - target: {fileID: 0}
    propertyPath: m_SavedProperties.m_Floats.Array.data[13].first
    value: _FaceUVSpeedY
    objectReference: {fileID: 0}
  - target: {fileID: 0}
    propertyPath: m_SavedProperties.m_Floats.Array.data[13].second
    value: 0
    objectReference: {fileID: 0}
  - target: {fileID: 0}
    propertyPath: m_SavedProperties.m_Floats.Array.data[14].first
    value: _GlowInner
    objectReference: {fileID: 0}
  - target: {fileID: 0}
    propertyPath: m_SavedProperties.m_Floats.Array.data[14].second
    value: 0.05
    objectReference: {fileID: 0}
  - target: {fileID: 0}
    propertyPath: m_SavedProperties.m_Floats.Array.data[15].first
    value: _GlowOffset
    objectReference: {fileID: 0}
  - target: {fileID: 0}
    propertyPath: m_SavedProperties.m_Floats.Array.data[15].second
    value: 0
    objectReference: {fileID: 0}
  - target: {fileID: 0}
    propertyPath: m_SavedProperties.m_Floats.Array.data[16].first
    value: _GlowOuter
    objectReference: {fileID: 0}
  - target: {fileID: 0}
    propertyPath: m_SavedProperties.m_Floats.Array.data[16].second
    value: 0.05
    objectReference: {fileID: 0}
  - target: {fileID: 0}
    propertyPath: m_SavedProperties.m_Floats.Array.data[17].first
    value: _GlowPower
    objectReference: {fileID: 0}
  - target: {fileID: 0}
    propertyPath: m_SavedProperties.m_Floats.Array.data[17].second
    value: 0.75
    objectReference: {fileID: 0}
  - target: {fileID: 0}
    propertyPath: m_SavedProperties.m_Floats.Array.data[18].first
    value: _GradientScale
    objectReference: {fileID: 0}
  - target: {fileID: 0}
    propertyPath: m_SavedProperties.m_Floats.Array.data[18].second
    value: 10
    objectReference: {fileID: 0}
  - target: {fileID: 0}
    propertyPath: m_SavedProperties.m_Floats.Array.data[19].first
    value: _LightAngle
    objectReference: {fileID: 0}
  - target: {fileID: 0}
    propertyPath: m_SavedProperties.m_Floats.Array.data[19].second
    value: 3.1416
    objectReference: {fileID: 0}
  - target: {fileID: 0}
    propertyPath: m_SavedProperties.m_Floats.Array.data[20].first
    value: _MaskSoftnessX
    objectReference: {fileID: 0}
  - target: {fileID: 0}
    propertyPath: m_SavedProperties.m_Floats.Array.data[20].second
    value: 0
    objectReference: {fileID: 0}
  - target: {fileID: 0}
    propertyPath: m_SavedProperties.m_Floats.Array.data[21].first
    value: _MaskSoftnessY
    objectReference: {fileID: 0}
  - target: {fileID: 0}
    propertyPath: m_SavedProperties.m_Floats.Array.data[21].second
    value: 0
    objectReference: {fileID: 0}
  - target: {fileID: 0}
    propertyPath: m_SavedProperties.m_Floats.Array.data[22].first
    value: _OutlineSoftness
    objectReference: {fileID: 0}
  - target: {fileID: 0}
    propertyPath: m_SavedProperties.m_Floats.Array.data[22].second
    value: 0
    objectReference: {fileID: 0}
  - target: {fileID: 0}
    propertyPath: m_SavedProperties.m_Floats.Array.data[23].first
    value: _OutlineUVSpeedX
    objectReference: {fileID: 0}
  - target: {fileID: 0}
    propertyPath: m_SavedProperties.m_Floats.Array.data[23].second
    value: 0
    objectReference: {fileID: 0}
  - target: {fileID: 0}
    propertyPath: m_SavedProperties.m_Floats.Array.data[24].first
    value: _OutlineUVSpeedY
    objectReference: {fileID: 0}
  - target: {fileID: 0}
    propertyPath: m_SavedProperties.m_Floats.Array.data[24].second
    value: 0
    objectReference: {fileID: 0}
  - target: {fileID: 0}
    propertyPath: m_SavedProperties.m_Floats.Array.data[25].first
    value: _OutlineWidth
    objectReference: {fileID: 0}
  - target: {fileID: 0}
    propertyPath: m_SavedProperties.m_Floats.Array.data[25].second
    value: 0.1
    objectReference: {fileID: 0}
  - target: {fileID: 0}
    propertyPath: m_SavedProperties.m_Floats.Array.data[26].first
    value: _PerspectiveFilter
    objectReference: {fileID: 0}
  - target: {fileID: 0}
    propertyPath: m_SavedProperties.m_Floats.Array.data[26].second
    value: 0.875
    objectReference: {fileID: 0}
  - target: {fileID: 0}
    propertyPath: m_SavedProperties.m_Floats.Array.data[27].first
    value: _Reflectivity
    objectReference: {fileID: 0}
  - target: {fileID: 0}
    propertyPath: m_SavedProperties.m_Floats.Array.data[27].second
    value: 10
    objectReference: {fileID: 0}
  - target: {fileID: 0}
    propertyPath: m_SavedProperties.m_Floats.Array.data[28].first
    value: _ScaleRatioA
    objectReference: {fileID: 0}
  - target: {fileID: 0}
    propertyPath: m_SavedProperties.m_Floats.Array.data[28].second
    value: 0.9
    objectReference: {fileID: 0}
  - target: {fileID: 0}
    propertyPath: m_SavedProperties.m_Floats.Array.data[29].first
    value: _ScaleRatioB
    objectReference: {fileID: 0}
  - target: {fileID: 0}
    propertyPath: m_SavedProperties.m_Floats.Array.data[29].second
    value: 0.73125
    objectReference: {fileID: 0}
  - target: {fileID: 0}
    propertyPath: m_SavedProperties.m_Floats.Array.data[30].first
    value: _ScaleRatioC
    objectReference: {fileID: 0}
  - target: {fileID: 0}
    propertyPath: m_SavedProperties.m_Floats.Array.data[30].second
    value: 0.64125
    objectReference: {fileID: 0}
  - target: {fileID: 0}
    propertyPath: m_SavedProperties.m_Floats.Array.data[31].first
    value: _ScaleX
    objectReference: {fileID: 0}
  - target: {fileID: 0}
    propertyPath: m_SavedProperties.m_Floats.Array.data[31].second
    value: 1
    objectReference: {fileID: 0}
  - target: {fileID: 0}
    propertyPath: m_SavedProperties.m_Floats.Array.data[32].first
    value: _ScaleY
    objectReference: {fileID: 0}
  - target: {fileID: 0}
    propertyPath: m_SavedProperties.m_Floats.Array.data[32].second
    value: 1
    objectReference: {fileID: 0}
  - target: {fileID: 0}
    propertyPath: m_SavedProperties.m_Floats.Array.data[33].first
    value: _ShaderFlags
    objectReference: {fileID: 0}
  - target: {fileID: 0}
    propertyPath: m_SavedProperties.m_Floats.Array.data[33].second
    value: 0
    objectReference: {fileID: 0}
  - target: {fileID: 0}
    propertyPath: m_SavedProperties.m_Floats.Array.data[34].first
    value: _Sharpness
    objectReference: {fileID: 0}
  - target: {fileID: 0}
    propertyPath: m_SavedProperties.m_Floats.Array.data[34].second
    value: 0
    objectReference: {fileID: 0}
  - target: {fileID: 0}
    propertyPath: m_SavedProperties.m_Floats.Array.data[35].first
    value: _SpecularPower
    objectReference: {fileID: 0}
  - target: {fileID: 0}
    propertyPath: m_SavedProperties.m_Floats.Array.data[35].second
    value: 2
    objectReference: {fileID: 0}
  - target: {fileID: 0}
    propertyPath: m_SavedProperties.m_Floats.Array.data[36].first
    value: _Stencil
    objectReference: {fileID: 0}
  - target: {fileID: 0}
    propertyPath: m_SavedProperties.m_Floats.Array.data[36].second
    value: 0
    objectReference: {fileID: 0}
  - target: {fileID: 0}
    propertyPath: m_SavedProperties.m_Floats.Array.data[37].first
    value: _StencilComp
    objectReference: {fileID: 0}
  - target: {fileID: 0}
    propertyPath: m_SavedProperties.m_Floats.Array.data[37].second
    value: 8
    objectReference: {fileID: 0}
  - target: {fileID: 0}
    propertyPath: m_SavedProperties.m_Floats.Array.data[38].first
    value: _StencilOp
    objectReference: {fileID: 0}
  - target: {fileID: 0}
    propertyPath: m_SavedProperties.m_Floats.Array.data[38].second
    value: 0
    objectReference: {fileID: 0}
  - target: {fileID: 0}
    propertyPath: m_SavedProperties.m_Floats.Array.data[39].first
    value: _StencilReadMask
    objectReference: {fileID: 0}
  - target: {fileID: 0}
    propertyPath: m_SavedProperties.m_Floats.Array.data[39].second
    value: 255
    objectReference: {fileID: 0}
  - target: {fileID: 0}
    propertyPath: m_SavedProperties.m_Floats.Array.data[40].first
    value: _StencilWriteMask
    objectReference: {fileID: 0}
  - target: {fileID: 0}
    propertyPath: m_SavedProperties.m_Floats.Array.data[40].second
    value: 255
    objectReference: {fileID: 0}
  - target: {fileID: 0}
    propertyPath: m_SavedProperties.m_Floats.Array.data[41].first
    value: _TextureHeight
    objectReference: {fileID: 0}
  - target: {fileID: 0}
    propertyPath: m_SavedProperties.m_Floats.Array.data[41].second
    value: 1024
    objectReference: {fileID: 0}
  - target: {fileID: 0}
    propertyPath: m_SavedProperties.m_Floats.Array.data[42].first
    value: _TextureWidth
    objectReference: {fileID: 0}
  - target: {fileID: 0}
    propertyPath: m_SavedProperties.m_Floats.Array.data[42].second
    value: 1024
    objectReference: {fileID: 0}
  - target: {fileID: 0}
    propertyPath: m_SavedProperties.m_Floats.Array.data[43].first
    value: _UnderlayDilate
    objectReference: {fileID: 0}
  - target: {fileID: 0}
    propertyPath: m_SavedProperties.m_Floats.Array.data[43].second
    value: 0
    objectReference: {fileID: 0}
  - target: {fileID: 0}
    propertyPath: m_SavedProperties.m_Floats.Array.data[44].first
    value: _UnderlayOffsetX
    objectReference: {fileID: 0}
  - target: {fileID: 0}
    propertyPath: m_SavedProperties.m_Floats.Array.data[44].second
    value: 0.5
    objectReference: {fileID: 0}
  - target: {fileID: 0}
    propertyPath: m_SavedProperties.m_Floats.Array.data[45].first
    value: _UnderlayOffsetY
    objectReference: {fileID: 0}
  - target: {fileID: 0}
    propertyPath: m_SavedProperties.m_Floats.Array.data[45].second
    value: -0.5
    objectReference: {fileID: 0}
  - target: {fileID: 0}
    propertyPath: m_SavedProperties.m_Floats.Array.data[46].first
    value: _UnderlaySoftness
    objectReference: {fileID: 0}
  - target: {fileID: 0}
    propertyPath: m_SavedProperties.m_Floats.Array.data[46].second
    value: 0.05
    objectReference: {fileID: 0}
  - target: {fileID: 0}
    propertyPath: m_SavedProperties.m_Floats.Array.data[47].first
    value: _VertexOffsetX
    objectReference: {fileID: 0}
  - target: {fileID: 0}
    propertyPath: m_SavedProperties.m_Floats.Array.data[47].second
    value: 0
    objectReference: {fileID: 0}
  - target: {fileID: 0}
    propertyPath: m_SavedProperties.m_Floats.Array.data[48].first
    value: _VertexOffsetY
    objectReference: {fileID: 0}
  - target: {fileID: 0}
    propertyPath: m_SavedProperties.m_Floats.Array.data[48].second
    value: 0
    objectReference: {fileID: 0}
  - target: {fileID: 0}
    propertyPath: m_SavedProperties.m_Floats.Array.data[49].first
    value: _WeightBold
    objectReference: {fileID: 0}
  - target: {fileID: 0}
    propertyPath: m_SavedProperties.m_Floats.Array.data[49].second
    value: 0.75
    objectReference: {fileID: 0}
  - target: {fileID: 0}
    propertyPath: m_SavedProperties.m_Floats.Array.data[50].first
    value: _WeightNormal
    objectReference: {fileID: 0}
  - target: {fileID: 0}
    propertyPath: m_SavedProperties.m_Floats.Array.data[50].second
    value: 0
    objectReference: {fileID: 0}
  - target: {fileID: 0}
    propertyPath: m_SavedProperties.m_Colors.Array.size
    value: 11
    objectReference: {fileID: 0}
  - target: {fileID: 0}
    propertyPath: m_SavedProperties.m_Colors.Array.data[0].first
    value: _ClipRect
    objectReference: {fileID: 0}
  - target: {fileID: 0}
    propertyPath: m_SavedProperties.m_Colors.Array.data[0].second.r
    value: -32767
    objectReference: {fileID: 0}
  - target: {fileID: 0}
    propertyPath: m_SavedProperties.m_Colors.Array.data[0].second.g
    value: -32767
    objectReference: {fileID: 0}
  - target: {fileID: 0}
    propertyPath: m_SavedProperties.m_Colors.Array.data[0].second.b
    value: 32767
    objectReference: {fileID: 0}
  - target: {fileID: 0}
    propertyPath: m_SavedProperties.m_Colors.Array.data[0].second.a
    value: 32767
    objectReference: {fileID: 0}
  - target: {fileID: 0}
    propertyPath: m_SavedProperties.m_Colors.Array.data[1].first
    value: _Color
    objectReference: {fileID: 0}
  - target: {fileID: 0}
    propertyPath: m_SavedProperties.m_Colors.Array.data[1].second.r
    value: 1
    objectReference: {fileID: 0}
  - target: {fileID: 0}
    propertyPath: m_SavedProperties.m_Colors.Array.data[1].second.g
    value: 1
    objectReference: {fileID: 0}
  - target: {fileID: 0}
    propertyPath: m_SavedProperties.m_Colors.Array.data[1].second.b
    value: 1
    objectReference: {fileID: 0}
  - target: {fileID: 0}
    propertyPath: m_SavedProperties.m_Colors.Array.data[1].second.a
    value: 1
    objectReference: {fileID: 0}
  - target: {fileID: 0}
    propertyPath: m_SavedProperties.m_Colors.Array.data[2].first
    value: _EnvMatrixRotation
    objectReference: {fileID: 0}
  - target: {fileID: 0}
    propertyPath: m_SavedProperties.m_Colors.Array.data[2].second.r
    value: 0
    objectReference: {fileID: 0}
  - target: {fileID: 0}
    propertyPath: m_SavedProperties.m_Colors.Array.data[2].second.g
    value: 0
    objectReference: {fileID: 0}
  - target: {fileID: 0}
    propertyPath: m_SavedProperties.m_Colors.Array.data[2].second.b
    value: 0
    objectReference: {fileID: 0}
  - target: {fileID: 0}
    propertyPath: m_SavedProperties.m_Colors.Array.data[2].second.a
    value: 0
    objectReference: {fileID: 0}
  - target: {fileID: 0}
    propertyPath: m_SavedProperties.m_Colors.Array.data[3].first
    value: _FaceColor
    objectReference: {fileID: 0}
  - target: {fileID: 0}
    propertyPath: m_SavedProperties.m_Colors.Array.data[3].second.r
    value: 1
    objectReference: {fileID: 0}
  - target: {fileID: 0}
    propertyPath: m_SavedProperties.m_Colors.Array.data[3].second.g
    value: 1
    objectReference: {fileID: 0}
  - target: {fileID: 0}
    propertyPath: m_SavedProperties.m_Colors.Array.data[3].second.b
    value: 1
    objectReference: {fileID: 0}
  - target: {fileID: 0}
    propertyPath: m_SavedProperties.m_Colors.Array.data[3].second.a
    value: 1
    objectReference: {fileID: 0}
  - target: {fileID: 0}
    propertyPath: m_SavedProperties.m_Colors.Array.data[4].first
    value: _GlowColor
    objectReference: {fileID: 0}
  - target: {fileID: 0}
    propertyPath: m_SavedProperties.m_Colors.Array.data[4].second.r
    value: 0
    objectReference: {fileID: 0}
  - target: {fileID: 0}
    propertyPath: m_SavedProperties.m_Colors.Array.data[4].second.g
    value: 1
    objectReference: {fileID: 0}
  - target: {fileID: 0}
    propertyPath: m_SavedProperties.m_Colors.Array.data[4].second.b
    value: 0
    objectReference: {fileID: 0}
  - target: {fileID: 0}
    propertyPath: m_SavedProperties.m_Colors.Array.data[4].second.a
    value: 0.5
    objectReference: {fileID: 0}
  - target: {fileID: 0}
    propertyPath: m_SavedProperties.m_Colors.Array.data[5].first
    value: _MaskCoord
    objectReference: {fileID: 0}
  - target: {fileID: 0}
    propertyPath: m_SavedProperties.m_Colors.Array.data[5].second.r
    value: 0
    objectReference: {fileID: 0}
  - target: {fileID: 0}
    propertyPath: m_SavedProperties.m_Colors.Array.data[5].second.g
    value: 0
    objectReference: {fileID: 0}
  - target: {fileID: 0}
    propertyPath: m_SavedProperties.m_Colors.Array.data[5].second.b
    value: 32767
    objectReference: {fileID: 0}
  - target: {fileID: 0}
    propertyPath: m_SavedProperties.m_Colors.Array.data[5].second.a
    value: 32767
    objectReference: {fileID: 0}
  - target: {fileID: 0}
    propertyPath: m_SavedProperties.m_Colors.Array.data[6].first
    value: _OutlineColor
    objectReference: {fileID: 0}
  - target: {fileID: 0}
    propertyPath: m_SavedProperties.m_Colors.Array.data[6].second.r
    value: 0.2770114
    objectReference: {fileID: 0}
  - target: {fileID: 0}
    propertyPath: m_SavedProperties.m_Colors.Array.data[6].second.g
    value: 0.3948127
    objectReference: {fileID: 0}
  - target: {fileID: 0}
    propertyPath: m_SavedProperties.m_Colors.Array.data[6].second.b
    value: 0.7075472
    objectReference: {fileID: 0}
  - target: {fileID: 0}
    propertyPath: m_SavedProperties.m_Colors.Array.data[6].second.a
    value: 1
    objectReference: {fileID: 0}
  - target: {fileID: 0}
    propertyPath: m_SavedProperties.m_Colors.Array.data[7].first
    value: _ReflectFaceColor
    objectReference: {fileID: 0}
  - target: {fileID: 0}
    propertyPath: m_SavedProperties.m_Colors.Array.data[7].second.r
    value: 0
    objectReference: {fileID: 0}
  - target: {fileID: 0}
    propertyPath: m_SavedProperties.m_Colors.Array.data[7].second.g
    value: 0
    objectReference: {fileID: 0}
  - target: {fileID: 0}
    propertyPath: m_SavedProperties.m_Colors.Array.data[7].second.b
    value: 0
    objectReference: {fileID: 0}
  - target: {fileID: 0}
    propertyPath: m_SavedProperties.m_Colors.Array.data[7].second.a
    value: 1
    objectReference: {fileID: 0}
  - target: {fileID: 0}
    propertyPath: m_SavedProperties.m_Colors.Array.data[8].first
    value: _ReflectOutlineColor
    objectReference: {fileID: 0}
  - target: {fileID: 0}
    propertyPath: m_SavedProperties.m_Colors.Array.data[8].second.r
    value: 0
    objectReference: {fileID: 0}
  - target: {fileID: 0}
    propertyPath: m_SavedProperties.m_Colors.Array.data[8].second.g
    value: 0
    objectReference: {fileID: 0}
  - target: {fileID: 0}
    propertyPath: m_SavedProperties.m_Colors.Array.data[8].second.b
    value: 0
    objectReference: {fileID: 0}
  - target: {fileID: 0}
    propertyPath: m_SavedProperties.m_Colors.Array.data[8].second.a
    value: 1
    objectReference: {fileID: 0}
  - target: {fileID: 0}
    propertyPath: m_SavedProperties.m_Colors.Array.data[9].first
    value: _SpecularColor
    objectReference: {fileID: 0}
  - target: {fileID: 0}
    propertyPath: m_SavedProperties.m_Colors.Array.data[9].second.r
    value: 1
    objectReference: {fileID: 0}
  - target: {fileID: 0}
    propertyPath: m_SavedProperties.m_Colors.Array.data[9].second.g
    value: 1
    objectReference: {fileID: 0}
  - target: {fileID: 0}
    propertyPath: m_SavedProperties.m_Colors.Array.data[9].second.b
    value: 1
    objectReference: {fileID: 0}
  - target: {fileID: 0}
    propertyPath: m_SavedProperties.m_Colors.Array.data[9].second.a
    value: 1
    objectReference: {fileID: 0}
  - target: {fileID: 0}
    propertyPath: m_SavedProperties.m_Colors.Array.data[10].first
    value: _UnderlayColor
    objectReference: {fileID: 0}
  - target: {fileID: 0}
    propertyPath: m_SavedProperties.m_Colors.Array.data[10].second.r
    value: 0
    objectReference: {fileID: 0}
  - target: {fileID: 0}
    propertyPath: m_SavedProperties.m_Colors.Array.data[10].second.g
    value: 0
    objectReference: {fileID: 0}
  - target: {fileID: 0}
    propertyPath: m_SavedProperties.m_Colors.Array.data[10].second.b
    value: 0
    objectReference: {fileID: 0}
  - target: {fileID: 0}
    propertyPath: m_SavedProperties.m_Colors.Array.data[10].second.a
    value: 0.5
    objectReference: {fileID: 0}
